    1 -1.077 -0.515 -0.436 200.31 179.15 252.27 179.59 237.61 175.44  69.52
    2  1.091 -0.027 -0.811 187.09 125.92 164.74 129.90 153.67 125.82  58.33
    3  0.396 -0.418  0.052 229.34 170.84  96.79 170.80 106.79 170.70  63.04
    4  0.502  0.724  0.547  57.64  49.22  11.12  51.04  60.56  48.96  61.44
    5  0.287 -0.316  0.515 191.90 159.26 200.20 160.59 222.17 160.07  64.53
    6  0.424 -0.932  0.229 129.83 223.77 226.88 224.56  86.95 224.93  66.45
    7 -0.514  1.046 -0.740 205.11  17.51  20.71  19.40  30.33  21.85  60.71
    8 -0.838  0.396  0.347 101.01  83.84 180.21  85.24 157.76  84.69  70.69
    9 -1.087  0.256 -0.348 210.07  97.98 247.95 101.41 180.73 101.27  47.08
   10  0.414  0.683  0.077  40.33  54.21  28.84  56.05 226.31  54.64  53.62
   11 -0.359  0.477 -0.694 104.43  77.80 155.93  78.96  36.81  79.47  69.23
   12 -0.290 -0.899  0.406 243.10 222.04  86.62 219.44 240.00 220.05  63.44
   13 -0.941 -0.343 -0.207 170.81 163.52 164.14 161.75 122.29 161.95  50.00
   14  0.046 -1.119 -0.796 110.27 238.98 113.87 238.67  66.57 237.59  73.61
   15  1.083  0.302 -0.274 161.27  97.24 113.13  96.91  65.44  95.96  79.62
   16 -0.351 -0.537 -0.698  24.66 182.61  35.73 182.27  59.92 181.40  66.55
   17  0.350 -0.326 -0.287 167.75 160.28 167.34 159.69 216.69 161.44  60.25
   18 -0.705 -0.058  0.029  72.22 133.67 184.33 133.45  44.05 133.55  53.14
   19 -0.913 -0.533 -0.632  70.98 183.03  18.30 180.89 165.79 180.71  50.15
   20  0.295  0.524  0.724 127.02  72.16  18.96  69.94  62.91  70.98  64.43
   21  1.083 -0.391  0.238  34.00 167.43 163.42 168.33 188.99 168.21  65.00
   22  1.187 -0.671 -0.284  50.46 193.52 237.01 194.82 248.26 197.18  62.48
   23  0.102 -1.114  0.423  89.84 241.69 220.07 241.66  40.08 244.48  54.93
   24  0.929 -0.076  0.675  76.70 134.35 217.15 135.21 221.39 135.42  67.56
   25 -0.515  0.571 -0.168 165.68  67.86  51.97  69.19 109.96  68.99  73.56
   26 -0.735 -0.812 -0.902 201.88 211.04 166.37 208.48 119.49 208.38  66.88
   27 -0.202  0.825  0.410 197.77  38.77 251.02  37.78 143.94  39.38  65.12
   28 -0.309 -0.417 -0.483 101.71 168.86  66.27 168.68 133.21 168.24  75.72
   29 -0.516 -0.081  0.014 192.34 135.12 101.39 136.26 116.13 136.28  65.39
   30  0.718 -0.323 -0.952 125.66 158.19 138.27 158.06 132.17 159.89  66.94
   31 -0.504 -0.359  0.326  45.74 164.57 146.47 163.70 247.11 164.48  62.76
   32 -0.515  0.825 -0.781 239.76  42.81 197.54  44.51 139.34  44.88  72.89
   33  0.557  0.836 -0.988 158.42  44.01 173.54  44.30   6.96  42.50  71.88
   34  0.600 -1.183 -0.939 252.98 241.90 139.05 245.87  56.68 248.31  46.92
   35  0.865  0.541  0.448  37.35  72.01  75.12  69.31  38.20  68.45  51.17
   36  0.721 -0.812 -0.071 184.94 207.69  70.64 210.30 232.72 211.06  66.10
   37  0.358 -0.447  0.488 178.06 171.39 125.74 173.62  85.32 175.13  71.03
   38  0.004  1.129 -0.427 181.15   7.73 201.78   5.34  17.23  11.22  60.00
   39 -0.969 -0.201 -0.062  80.96 147.83  54.39 147.40  47.32 147.09  63.72
   40  0.878 -0.069 -0.665  23.31 133.99  20.81 133.79  52.15 134.14  63.28
   41  0.733 -0.277 -0.228  80.25 153.20  95.74 152.75  87.06 152.95  77.32
   42  0.510  0.422 -0.495 134.69  83.36  63.70  83.79  53.26  84.26  62.62
   43  0.436  0.809 -0.011 164.97  44.51 138.34  43.72 161.93  42.55  56.69
   44  0.233 -0.729 -0.727  50.68 199.33  46.35 197.59   4.37 197.66  50.67
   45 -0.476 -0.243 -0.350 150.08 151.99 120.70 151.80  92.85 151.90  67.10
   46 -0.125 -0.202  0.953  29.48 149.21 221.74 147.46 162.46 147.78  49.00
   47 -0.024 -0.428  0.499  94.29 171.33 208.26 171.77 150.21 172.26  69.97
   48 -1.125  0.742  0.065 234.67  47.68 117.91  48.07  96.94  51.43  53.25
   49  0.116 -0.208  0.525  48.42 149.63  27.87 149.03  32.84 148.60  61.91
   50 -0.869 -0.618 -0.265  18.60 193.13  21.72 191.01 184.99 189.39  53.43
   51 -0.893 -0.381 -0.404 200.60 167.77  75.23 166.05   8.35 165.12  58.33
   52 -0.153 -1.052 -0.729  65.43 235.52  69.29 233.93  58.54 232.54  63.12
   53 -0.546 -0.979  0.963 129.12 230.29 204.10 233.58 145.10 230.86  64.50
   54  0.099 -0.294 -0.627  83.93 153.54  79.46 153.11 240.30 154.79  76.54
   55 -0.986  0.716 -0.753 253.39  52.73  66.08  54.19  31.60  55.69  58.80
   56  0.699  0.349  0.968 104.17  90.18 165.52  87.76 157.92  87.67  65.83
   57  0.551  0.410  0.230 166.95  85.51  71.67  84.41  11.65  84.38  68.38
   58 -0.986 -0.843 -0.079 145.90 217.03 202.92 212.38  49.99 210.41  67.31
   59  0.086  0.176 -0.722  64.48 108.34 214.66 108.07 132.69 107.77  53.11
   60 -0.481 -1.046 -0.841 127.68 234.86 138.26 230.01  39.52 232.53  61.89
   61 -0.574  0.025 -0.115  80.68 121.02  94.27 119.60 109.96 120.07  71.26
   62  0.196 -1.043  0.324 184.86 235.97 144.67 236.84 100.25 237.06  69.46
   63  0.836  0.195 -0.116 164.18 107.88   7.99 105.20 130.34 104.01  69.52
   64  0.754 -0.410  0.547  43.12 168.27 241.80 169.21 231.95 171.26  60.57
   65  0.791  0.806 -0.528 186.87  46.63  76.38  45.15 156.23  43.20  75.47
   66  0.927  0.124 -0.963 203.58 111.04 225.25 113.08 164.17 112.85  52.58
   67  0.051 -0.903  0.856  10.65 223.58 101.85 224.08 251.80 224.01  56.50
   68  0.277  0.777  0.544 109.45  46.32 183.97  44.70 208.42  44.12  69.93
   69  0.953  0.248  0.627  26.89 101.21  71.49  98.49  60.27  98.21  62.71
   70 -0.424  0.486  0.170 243.04  76.59 128.17  76.07  94.82  76.45  59.50
   71 -0.157  0.115 -0.826  35.71 114.50 178.59 114.42 191.22 114.20  53.50
   72  0.189 -0.741 -0.446  40.58 201.95 151.79 201.85 236.80 199.53  45.50
   73  0.958  0.301 -0.383 141.84  97.53 156.42  97.01 102.46  96.18  73.12
   74  0.385  0.233  0.144 253.79 102.99 229.70 101.92  13.98 102.35  43.44
   75  0.124  0.934 -0.477 225.26  31.79 137.55  31.22 157.08  30.00  62.67
   76 -0.631  0.468  0.575 180.74  76.81 139.40  76.44 202.62  78.18  62.25
   77  0.125 -0.733  0.018 133.86 202.01   8.85 203.11 164.30 202.84  67.05
   78  0.223  0.196  0.093 180.69 104.17 145.58 104.00  38.04 105.63  59.00
   79  0.561 -0.874 -0.199  12.78 213.80 251.32 215.86  94.68 218.84  59.40
   80  0.192  0.840 -0.765 242.45  41.13 203.01  40.61 193.03  42.00  63.94
   81  0.684  0.605  0.669 161.95  64.67 225.90  61.53  32.12  60.56  64.43
   82 -1.042  1.054 -0.158  33.29  13.12   4.62  16.33   6.51  19.94  54.23
   83  0.177 -0.346 -0.320 160.83 161.56 158.68 161.77  40.91 162.87  68.62
   84  0.869 -0.178  0.891  47.24 143.44  90.06 145.98 237.58 146.29  59.57
   85  0.735 -1.020 -0.164  57.29 230.20  29.79 232.72 129.71 234.80  62.30
   86 -0.686 -0.116  0.527 234.19 139.57  81.01 137.93 234.72 138.68  66.00
   87  0.846 -0.121 -0.592   8.74 138.37 227.90 140.16 194.91 140.16  52.70
   88 -0.037  1.010 -0.912 184.93  24.70  72.04  25.70  21.49  23.66  62.67
   89  0.604 -0.494  0.150  38.41 177.51 211.74 178.41  38.26 179.73  55.00
   90 -0.440 -0.090  0.863 249.94 136.09 227.36 136.34 176.64 136.52  66.50
   91  0.353 -0.601 -0.998 155.55 187.45 156.06 187.75 106.83 187.99  74.85
   92 -0.563 -0.800 -0.347 160.39 208.54 145.23 208.84 137.46 209.23  54.40
   93 -0.133 -0.445  0.476 157.86 173.56 169.50 171.78 164.72 172.58  69.00
   94 -0.073 -0.224  0.420 171.52 150.17 114.85 150.03 106.07 150.30  64.64
   95 -0.656 -0.543 -0.195  82.53 183.45  92.77 182.60  36.31 182.15  57.95
   96 -0.932 -1.046 -0.642  20.45 237.17  19.15 233.63  28.45 231.82  51.71
   97 -0.075  0.297  0.619  80.10  94.95  64.77  95.55 218.71  96.49  81.00
   98  0.269  0.479 -0.250 108.25  76.85  83.92  77.43  71.34  77.98  73.39
   99 -0.538  0.984  0.113  66.28  20.59 212.65  23.34 146.85  26.24  66.24
  100  1.191  0.878 -0.195 141.86  35.64  50.38  36.62 151.80  33.01  61.00
  101 -1.055 -0.054 -0.534 186.45 133.41   7.83 133.42 228.99 131.35  79.62
  102 -1.181 -0.364  0.096 106.76 166.53 135.13 163.70 144.19 164.01  66.05
  103 -0.551  0.769  0.158 160.54  46.43 121.23  46.30  67.06  47.97  74.00
  104  0.532  0.606 -0.798  69.63  66.52  28.11  66.26  54.83  63.62  67.29
  105 -0.656 -1.120  0.437 158.09 246.09 212.52 243.10 149.92 241.93  53.08
  106  0.930 -0.909  0.505  42.38 221.58  97.71 223.17  12.10 224.36  48.50
  107  0.065 -1.195 -0.886 247.86 248.13  58.92 246.62 252.95 247.60  54.56
  108 -0.779  0.916 -0.999  36.71  33.81  96.45  35.57 243.40  35.29  64.32
  109  1.081  0.507  0.180 144.77  75.72  96.19  72.57 114.73  71.98  67.53
  110  1.148  0.258  0.086  99.18  98.05  96.89  97.54  96.16  96.99  72.50
  111  0.056  0.497  0.314  52.17  73.37 241.36  75.16  69.70  74.43  47.20
  112 -0.066  0.769  0.664 122.20  45.87 157.63  45.81 120.16  45.48  60.69
  113 -0.539  0.418  0.262 163.55  83.30  88.22  83.64 181.03  84.44  62.83
  114 -0.361 -0.168  0.460  97.45 140.84 214.18 140.56 215.79 140.90  75.00
  115 -0.707 -0.183  0.147 125.27 146.14  41.20 143.02  65.46 145.84  68.73
  116  0.370 -0.297  0.460 196.71 156.38 203.71 156.76 148.55 158.34  67.45
  117 -0.374  0.417  0.733  49.29  82.61 136.87  83.16 107.43  82.37  68.50
  118  0.462  0.899  0.168  32.53  34.07 203.04  31.95 145.10  32.18  67.89
  119 -1.164 -0.682  0.230  23.64 197.10 250.18 197.16 242.11 197.08  60.86
  120 -0.437  0.669 -0.305 180.59  57.72 155.32  59.21 246.75  59.89  72.12
  121  0.072 -0.944  0.358  99.54 225.23  48.23 226.37 183.07 226.73  49.00
  122  0.465  0.023  0.128  29.52 122.55  52.84 121.15  45.08 120.76  45.78
  123  0.788 -0.543 -0.994 179.15 177.84  56.60 181.77 111.15 182.50  58.85
  124 -0.580  0.690  0.815 207.14  52.57  70.84  51.20  14.31  53.08  69.76
  125 -0.336  0.487  0.900 195.71  72.83  43.86  73.56 112.79  76.03  64.12
  126  0.017 -0.569  0.275  73.08 185.47  60.59 184.17 224.67 184.13  79.23
  127 -0.134 -1.023  0.942 170.97 237.40 102.83 237.91 189.70 235.90  65.75
  128  0.215  1.122 -0.497  44.15  12.89 184.91   6.47 132.44  12.36  58.90
  129  0.154 -1.015  0.765  51.16 235.57  33.77 234.29 247.85 235.84  60.67
  130  1.079  1.120 -0.783  38.11  16.13 128.67  12.94  41.10   5.17  62.65
  131 -0.197  0.370 -0.490 198.78  85.86 238.12  88.58 173.37  87.71  69.21
  132  0.362 -0.763  0.302  63.82 205.10 232.97 207.41  13.46 208.39  61.00
  133 -0.305  0.528  0.371  57.00  71.54 219.70  71.05  41.35  71.18  59.23
  134 -0.102  0.791 -0.639  96.00  46.70  82.05  47.02  99.94  45.56  70.65
  135  0.550  1.182 -0.220 201.60   6.93 216.66   4.90 162.41 252.81  65.56
  136  0.302  0.332 -0.121  55.07  90.65  47.63  91.21  60.66  91.79  71.00
  137 -1.073  0.573 -0.507  44.18  67.80  94.19  69.21  76.52  69.85  64.86
  138 -0.852 -0.144 -0.398 192.41 140.38  55.51 140.54  33.96 140.28  53.12
  139  0.272  0.302 -0.097 157.91  96.65 120.24  96.67 226.68  96.24  55.30
  140  0.361 -0.016 -0.719  83.54 125.62  68.90 125.68  69.26 125.72  73.82
  141  0.181  0.579  0.227 157.49  67.58 181.82  67.27 224.81  64.98  53.89
  142 -0.614  0.316 -0.107 162.94  94.13 117.75  94.17 247.93  94.76  71.92
  143  1.083 -0.663 -0.884  84.93 193.42 199.29 193.91  61.69 196.58  60.84
  144 -1.074 -1.037 -0.565  99.42 235.62  80.06 233.49  33.62 230.47  72.05
  145 -0.396  0.951  0.547 222.18  25.46 168.10  26.34 227.25  26.30  59.70
  146  0.570  0.635 -0.767 239.73  64.09 201.25  63.77 249.41  61.66  62.64
  147 -1.189  0.228 -0.674 156.58 104.06 168.47 103.98 145.68 103.71  67.42
  148  0.246  0.928  0.542 197.48  27.07  19.87  28.28  63.47  26.84  73.62
  149  0.189  0.742  0.340  38.23  48.64  70.66  47.81  70.96  48.39  63.31
  150  0.065 -0.333  0.623 186.62 161.47  31.33 163.58 158.71 162.15  71.15
  151  0.194  0.837  0.999 188.51  35.32  37.40  36.52  85.20  37.61  81.86
  152  0.271 -0.578 -0.244  33.14 183.84  43.83 183.21 215.95 186.56  64.82
  153 -0.323 -0.244 -0.837 128.10 151.51 140.51 150.27 116.00 151.49  74.24
  154 -0.950 -0.603  0.230 243.99 191.30 163.55 188.31 149.87 188.38  56.50
  155 -0.408 -0.891 -0.402 182.89 217.36   2.65 218.74  64.29 216.90  60.79
  156 -0.921 -0.664 -0.879  10.97 195.89 232.77 194.68 190.03 193.33  56.04
  157 -0.595  0.645  0.770 197.42  57.41 171.37  57.08  88.64  60.01  65.31
  158 -0.949 -1.007 -0.041 140.12 234.90 135.86 227.77 146.01 227.05  58.25
  159 -1.188  0.603 -0.678  43.27  64.64 207.86  66.71 194.14  65.94  66.17
  160  0.536 -0.051 -0.026 208.85 130.91 245.13 131.22 170.81 132.91  63.45
  161  1.017 -0.771 -0.268 152.60 204.27 147.49 203.97 125.69 209.26  71.60
  162  0.918  0.627  0.590 175.09  60.03 234.01  60.33 165.60  59.90  84.00
  163 -0.259 -0.940 -0.465 178.99 224.64 222.57 222.22  73.93 222.33  63.19
  164  0.258  0.656  0.289  12.88  59.37 222.56  56.78  58.28  57.24  58.44
  165  0.796  0.615 -0.979 222.14  65.42 185.77  64.18 196.48  62.86  54.89
  166  1.134 -0.029 -0.204 203.05 130.90 196.03 130.93 175.68 129.93  48.29
  167  0.279 -1.210 -0.565  96.86 248.53  11.08 248.73 154.98 249.43  61.78
  168 -0.145  0.300  0.174 117.69  95.49 107.27  96.10 144.44  96.72  78.22
  169  1.012  0.466  0.198 155.03  79.15  61.24  78.49  49.83  76.57  77.42
  170  0.720 -0.379 -0.180 222.98 165.43   5.15 166.23  52.75 166.53  51.75
  171 -0.295  0.286  0.732 134.10  96.81 239.57  97.25  84.98  96.77  79.75
  172 -0.336  0.082 -0.629 111.54 118.67 112.43 116.73  18.35 118.82  76.04
  173 -0.533  0.091  0.006   4.02 117.20 221.01 115.80  21.72 117.72  48.50
  174 -0.202  0.312 -0.120 142.65  94.28  75.93  94.42  47.64  94.95  64.00
  175  0.705  0.908  0.515  83.99  32.94 154.36  29.75 117.35  29.38  83.75
  176 -0.802 -0.679 -0.432 230.78 196.61  35.81 194.95 182.94 195.17  59.48
  177  1.181  0.464 -0.663  81.97  79.27 234.16  79.52 149.84  78.41  67.78
  178  0.950 -0.112  0.243 133.71 137.98  74.65 136.68  42.16 137.79  53.93
  179  0.092  0.968 -0.881 125.36  26.45 239.96  29.47  58.75  28.70  75.26
  180 -0.894  0.904 -0.583 187.69  32.88 176.51  34.20 250.94  36.60  71.75
  181  0.693 -0.850 -0.825  40.06 211.92  73.23 212.28  32.02 213.60  68.50
  182 -0.741 -0.911  0.945  26.70 225.35 133.78 225.24 110.41 223.99  56.00
  183  1.087  0.961 -0.281 115.62  30.41  86.32  27.26 127.73  25.60  60.93
  184 -1.021  0.348  0.255 163.82  88.03 108.15  90.57 116.95  90.56  59.50
  185  1.199  0.633 -0.604   5.50  65.07  18.49  62.46 178.73  60.09  58.76
  186 -0.643  0.443 -0.879 218.38  82.23  15.07  83.17 110.34  80.13  59.12
  187  0.173  1.088 -0.858   6.84  16.82 237.00  15.42 154.14  12.75  51.23
  188  1.183 -0.842  0.048 110.58 212.73 197.99 213.68 209.84 216.05  66.87
  189  0.832 -0.501 -0.909 146.90 175.44 114.15 175.37 129.85 175.99  69.44
  190  0.163 -0.772  0.132 219.51 206.07 176.11 207.91  85.39 208.94  71.47
  191  0.781  1.027 -0.443  95.58  24.02 175.34  20.79 181.84  19.01  69.15
  192 -1.094  0.656 -0.904  55.32  59.39 176.71  60.94 153.46  62.81  54.36
  193  0.859 -1.064  0.697 165.45 238.40  26.01 239.40 121.25 238.47  58.29
  194  0.104  0.484  0.782 157.77  76.09 134.11  75.95 108.85  75.98  71.52
  195  0.693  0.813  0.932 230.47  40.85 149.26  37.77  59.58  37.66  56.75
  196 -0.441  0.774  0.241 179.22  45.06 208.64  46.24 130.95  47.72  67.71
  197 -0.955 -0.899 -0.839  94.36 221.38 186.07 218.32 184.96 214.11  53.33
  198  0.098 -1.000 -0.537   4.40 228.26  20.49 227.52 108.52 227.84  51.25
  199 -0.721  0.070  0.174  96.83 118.91  62.13 118.99  85.85 118.82 103.75
  200  0.375  0.961  0.585 103.11  26.09 197.41  25.06  98.47  23.29  66.67
  201  0.687 -0.631 -0.095 134.38 188.33 203.72 191.93 224.12 193.89  62.18
  202  0.464  1.060 -0.634 123.74  18.50 145.67  18.90 163.56  17.55  51.25
  203  0.299  0.429  0.920 237.80  80.75  91.95  80.05 249.90  79.73  55.80
  204 -1.164  1.066  0.242   9.85   8.38 150.15  13.95 204.24  18.72  46.71
  205 -0.124 -0.396 -0.743 245.49 168.10  36.93 167.20  46.83 168.03  64.08
  206 -0.522 -0.790  0.478  75.87 211.70  54.55 209.71  79.01 209.42  70.74
  207 -0.100  0.324  0.289 241.72  91.46  21.21  91.84  15.52  92.75  56.79
  208 -1.000 -1.209 -0.745 202.02 253.72 134.77 248.27 108.75 246.01  26.00
  209 -0.836  0.541 -0.715 134.58  70.00 159.74  72.20  24.43  74.12  65.00
  210  0.132 -1.207  0.057  65.02 251.85  27.32 250.38 205.26 249.58  57.86
  211  0.801 -0.606  0.426 152.77 188.01  28.58 191.31  23.00 190.10  74.36
  212  0.362  0.392 -0.237  76.20  85.63 185.95  85.26  57.46  85.02  65.49
  213 -1.058  0.181  0.309   5.62 104.33 151.46 107.80 197.49 107.58  55.78
  214 -0.571  0.768 -0.832 168.06  48.00 148.09  50.06 120.02  49.79  67.00
  215  0.642  0.769  0.922 190.30  47.37 241.03  44.19 115.65  43.51  74.82
  216 -0.265 -0.079 -0.628 202.02 253.72  54.95 134.27 231.59 134.93  26.00
  217  0.649 -0.035  0.129 202.02 253.72 176.78 125.89 244.36 131.04  26.00
  218 -0.095  0.747  0.920 107.24  47.46  27.32 250.38 221.10  47.96  78.70
  219 -1.082  0.999 -0.950 157.75  21.35 124.56  27.02 205.26 249.58  63.38
  220  0.081  0.428  0.401 204.12  82.48 247.85  81.18 205.26 249.58  60.33
  221  0.167  0.233  0.023 250.07 102.61  16.93 102.07  34.00 102.67  56.18
  222  0.443 -0.738  0.954 202.02 253.72 141.26 204.39 210.92 207.47  26.00
  223 -0.298  0.865  0.733  51.80  34.29 140.94  33.04 205.26 249.58  59.00
  224 -0.312  0.931 -0.756 133.55  32.77  27.32 250.38  85.43  32.62  73.30
  225 -0.001  0.501  0.080 202.02 253.72  92.10  75.91  35.09  75.12  26.00
  226 -0.587 -0.383  0.423 202.02 253.72 115.64 168.09  58.04 165.54  26.00
  227 -0.247 -1.064 -0.208  31.01 237.48 112.81 234.50 205.26 249.58  65.00
  228  0.096  0.806  0.235 128.81  43.35 106.94  41.21 203.13  42.78  68.83
  229  0.328 -0.374  0.770 197.52 166.70 202.55 167.32 205.26 249.58  57.44
  230  0.932  0.708 -0.659  21.99  53.74 229.02  55.10 236.92  52.70  60.90
  231  0.876 -0.872  0.919 202.02 253.72  32.20 218.88   2.36 221.50  26.00
  232 -0.392 -0.894 -0.279  46.30 217.95  27.32 250.38 224.39 218.71  66.97
  233 -0.069 -0.225 -0.163 166.63 149.94  27.32 250.38  66.91 149.84  60.08
  234 -0.250 -0.828  0.723 246.46 213.38  26.21 215.50 205.26 249.58  44.75
  235  0.784 -1.069  0.844 202.02 253.72 132.86 240.94 168.84 243.88  26.00
  236 -0.756  0.584 -0.731 173.40  67.40 147.22  67.58 205.26 249.58  57.22
  237  0.470  0.653 -0.178 202.02 253.72  83.40  59.53 128.36  58.79  26.00
  238 -0.972  0.601 -0.196 245.51  63.31 249.95  63.95 205.26 249.58  57.00
