    1 -0.638  0.561 -0.566  59.44  70.09  63.51  71.37  82.65  71.91  53.79
    2 -0.181 -0.460 -0.192 115.24 175.98 109.63 175.62 108.75 175.53  42.77
    3 -0.292  0.253 -0.370  98.32 102.08  98.46 102.40 105.53 102.46  93.14
    4 -0.073  0.170  0.139 137.59 110.44 120.60 110.51 105.64 110.50  44.48
    5  0.196  0.680  0.783 187.42  56.17 149.21  55.51 104.96  55.41  46.06
    6 -0.977  0.347 -0.064  46.02  91.37  27.21  92.37  33.93  93.16  43.09
    7 -1.110 -0.235 -0.528  16.73 152.95  15.49 152.15  40.75 151.62  40.16
    8  0.735  1.084  0.587 227.70  15.66 206.33  13.25 163.06  11.27  45.82
    9  0.098  0.952  0.917 183.99  26.61 138.84  25.85  90.57  26.09  42.90
   10 -0.091  0.388  0.837 163.35  86.75 118.47  86.69  76.43  86.95  48.30
   11 -0.192  0.847  0.051 123.50  39.65 108.37  40.25  98.36  40.51  49.09
   12 -0.254 -0.186  0.375 130.17 147.97 101.53 147.89  80.18 147.72  44.22
   13 -0.916 -0.051  0.781  83.58 133.86  30.28 133.75   5.16 133.60  39.39
   14  0.087  1.224 -0.952 111.15   5.01 136.96   5.83 160.84   4.49  42.83
   15  0.827  0.545 -0.378 197.42  73.42 212.79  72.56 207.83  71.09  43.96
   16  0.327  0.322 -0.588 145.80  95.62 161.44  95.58 169.41  95.10  44.83
   17  0.280  0.480 -0.493 145.21  79.48 156.79  79.40 161.61  78.78  46.54
   18  0.432  0.747 -0.403 162.03  52.39 172.36  51.95 172.09  50.73  46.10
   19  0.453 -0.808 -0.562 157.85 209.80 174.23 210.25 179.82 211.65  42.17
   20 -1.047  0.040 -0.343  29.21 124.00  21.07 124.14  38.88 124.18  42.09
   21 -1.063  0.990 -0.252  31.12  23.36  19.09  26.57  33.94  28.86  41.78
   22 -0.413  0.137  0.793 131.75 113.49  84.09 113.59  49.17 113.81  41.19
   23  0.565  1.007 -0.420 173.11  26.41 185.84  25.56 184.95  23.54  43.99
   24 -0.941  0.970 -0.100  48.16  25.32  31.00  28.07  38.34  30.14  45.13
   25 -0.258  0.493 -0.092 111.94  76.79 101.59  77.27  97.97  77.46  48.20
   26 -0.469  0.386 -0.609  73.45  88.42  80.76  89.12  99.11  89.32  43.59
   27  0.557  0.096 -0.519 168.54 118.62 184.89 118.54 187.90 118.35  44.30
   28  0.591  0.914  0.155 197.66  34.18 189.88  32.87 165.95  31.29  48.03
   29 -0.317 -0.090  0.568 132.07 137.82  94.48 137.81  67.01 137.63  54.99
   30  0.632 -0.847  0.881 230.57 217.31 196.16 219.26 141.92 220.35  43.81
   31  1.028  0.927  0.157 235.90  33.90 235.58  31.51 207.22  28.79  45.22
   32 -0.084  0.416  0.801 162.53  83.77 119.25  83.72  78.49  83.99  51.77
   33 -0.962  0.341 -0.739  23.17  92.82  31.36  93.91  61.46  94.45  35.23
   34  0.601 -0.626  0.969 231.36 194.33 192.96 195.76 135.49 196.50  40.65
   35  0.654  0.946  0.727 226.13  29.40 198.03  27.35 149.95  25.93  49.38
   36  0.973 -0.410 -0.476 206.24 169.21 227.24 170.02 225.16 171.24  39.31
   37  0.782  0.654  0.915 245.11  59.70 212.31  57.94 154.83  56.79  40.24
   38  0.570  0.470  0.027 190.79  80.09 187.46  79.50 168.92  78.68  44.67
   39 -0.562  0.335 -0.620  64.49  93.67  71.35  94.38  91.40  94.61  37.67
   40 -0.637 -0.465  0.005  80.58 177.35  62.20 176.49  60.74 175.79  49.46
   41 -1.090  0.538 -0.250  28.53  71.18  16.31  72.97  31.54  74.23  39.42
   42 -0.174 -0.288 -0.236 114.20 158.17 110.41 157.90 111.05 157.88  51.84
   43  0.349  0.256 -0.084 166.97 101.97 164.37 101.82 152.69 101.50  49.06
   44 -0.845  0.929 -0.593  39.32  31.50  42.61  34.13  65.82  35.47  36.18
   45 -0.125  0.445 -0.347 114.41  82.42 115.49  82.77 119.59  82.71  39.21
   46 -0.139  0.039  0.134 131.41 124.16 113.78 124.16  99.95 124.17  54.80
   47  0.375 -0.175  0.641 197.83 146.68 168.18 146.93 127.25 147.05  44.06
   48 -0.133  1.016 -0.693 100.99  24.55 114.85  25.64 131.81  25.21  49.06
   49 -1.183  1.019 -0.417  13.76  20.56   7.49  24.28  30.12  26.77  38.42
   50 -0.700 -0.296  0.128  79.24 159.69  55.26 159.09  50.33 158.59  49.35
   51  0.357 -0.380  0.135 176.15 167.57 165.49 167.88 145.08 168.29  48.15
   52 -0.491 -0.638 -0.178  87.34 195.01  77.68 193.97  80.68 193.42  48.79
   53  0.541 -0.961  0.886 222.60 229.53 186.33 231.47 133.07 232.47  43.72
   54 -0.528 -0.037  0.827 122.26 132.30  71.65 132.26  37.45 132.21  44.25
   55  0.645 -0.936 -0.316 184.10 223.07 194.37 224.21 188.58 226.19  40.94
   56 -0.620 -0.860  0.370  95.98 220.15  63.10 218.73  47.71 217.23  40.47
   57  1.119 -0.751 -0.069 234.60 203.99 243.96 205.93 224.16 208.41  41.56
   58 -0.466 -0.228  0.369 110.34 152.54  79.29 152.22  61.52 151.91  43.18
   59  0.264  1.031  0.635 187.68  19.66 156.32  18.62 117.06  18.16  41.12
   60  0.164 -0.201  0.689 180.72 149.49 145.71 149.62 105.74 149.66  50.09
   61  0.822 -0.569 -0.108 207.53 185.97 213.18 186.98 197.53 188.40  53.29
   62  0.309 -0.199 -0.009 166.25 148.83 160.27 148.91 146.13 149.13  44.29
   63  0.896  0.575 -0.754 188.94  71.14 218.49  70.32 227.77  68.58  40.41
   64  0.253 -0.167 -0.407 146.03 145.30 154.15 145.38 155.95 145.52  49.83
   65  0.530  0.633  0.112 190.61  63.08 183.49  62.28 161.98  61.29  44.33
   66 -0.963 -0.530  0.032  50.87 184.83  28.26 183.32  31.31 182.11  42.62
   67  0.871  0.600  0.573 238.88  66.18 220.61  64.66 176.49  63.29  41.14
   68  0.195 -0.503 -0.436 139.82 179.58 148.14 179.56 151.72 180.09  47.52
   69 -1.095 -1.157 -0.778   9.44 248.87  18.06 244.72  51.53 242.55  37.63
   70 -0.185 -0.794 -0.130 117.23 210.81 109.21 210.18 105.96 210.04  50.18
   71  0.838 -0.720  0.088 216.65 201.69 215.51 203.17 191.76 204.91  44.21
   72 -0.492  1.058  0.057  96.14  16.68  77.15  18.27  71.39  19.44  54.31
   73  0.915  0.268  0.422 236.62 100.69 224.75  99.99 186.50  99.33  41.34
   74 -0.626  0.761 -0.577  60.26  49.38  64.82  51.09  84.21  51.78  43.09
   75  0.624 -1.136  0.961 233.08 248.02 195.45 250.64 137.93 252.06  47.78
   76 -0.686  0.730  0.229  84.41  50.48  56.50  51.89  47.58  53.17  37.63
   77  0.895  0.184  0.270 228.87 109.41 222.07 108.98 190.44 108.53  45.12
   78 -0.729 -0.341  0.218  79.89 164.58  52.02 163.89  44.22 163.26  46.55
   79 -1.004 -0.414  0.072  48.44 172.47  23.77 171.26  26.21 170.31  45.22
   80 -1.152 -0.783  0.006  31.93 212.16   8.79 209.53  16.12 207.38  38.78
   81  0.190 -1.198 -0.457 138.67 250.40 147.62 250.45 151.96 251.50  72.88
   82 -0.369  1.056  0.461 122.93  15.84  89.28  16.77  66.36  17.97  47.00
   83  0.784 -0.643  0.729 237.76 195.22 211.95 196.86 162.33 198.10  50.08
   84 -0.785 -1.010 -0.345  53.90 234.18  47.91 231.62  61.38 230.10  43.57
   85 -0.474 -0.448  0.675 121.44 176.45  77.79 175.93  48.51 175.21  55.47
   86  0.759 -0.040  0.360 220.53 132.31 208.06 132.44 174.02 132.57  46.86
   87 -0.775 -1.120  0.705  94.31 249.78  45.53 247.74  20.59 244.96  50.59
   88 -0.093  1.070 -0.702 104.47  19.24 118.67  20.31 135.89  19.72  41.03
   89 -0.587  0.021  0.545 105.75 125.95  66.02 125.98  43.71 126.10  45.59
   90  1.001  0.165 -0.795 196.28 111.94 228.95 111.66 239.00 111.13  35.64
   91 -0.800 -0.844  0.213  73.09 218.42  44.61 216.51  38.21 214.79  45.35
   92  0.524  0.940 -0.202 177.88  32.48 182.18  31.54 173.11  29.86  53.84
   93 -0.313 -0.832 -0.890  77.52 213.04  96.93 211.69 123.27 211.77  44.38
   94  0.196  0.491  0.600 180.13  76.58 149.12  76.16 112.24  76.01  49.29
   95  0.816 -0.173  0.522 232.07 146.11 214.68 146.53 173.35 146.89  44.38
   96  0.147  0.128  0.896 187.55 114.67 144.09 114.51  95.99 114.55  49.86
   97 -1.062  0.212  0.014  40.78 105.57  18.08 106.22  23.53 106.87  42.12
   98 -0.816 -0.135  0.549  84.24 142.88  41.79 142.60  23.37 142.28  37.69
   99 -0.557 -0.894 -0.901  54.97 219.83  72.49 217.82 102.36 217.38  37.41
  100 -0.968  1.034  0.360  62.68  16.70  26.49  19.45  17.69  22.15  46.32
  101 -1.128 -0.512 -0.162  28.06 182.71  11.97 180.97  24.84 179.68  43.26
  102 -0.728 -0.838 -0.822  42.05 214.67  55.13 212.45  84.64 211.63  41.05
  103 -0.034  0.187  0.630 160.44 108.31 124.61 108.36  90.06 108.43  45.08
  104 -0.074 -0.275  0.959 169.87 157.84 120.34 157.92  73.14 157.70  48.00
  105  0.034 -0.666  1.016 182.04 199.72 131.90 200.15  80.65 199.84  48.60
  106  0.329  1.179 -0.053 166.42   6.94 162.27   6.25 149.48   4.90  42.62
  107  1.028 -0.070 -0.097 225.73 135.31 234.48 135.50 216.62 135.72  49.33
  108  0.804  0.849 -0.382 195.31  42.77 210.42  41.48 205.76  39.26  44.25
  109 -0.191 -1.152 -0.123 116.98 248.07 108.54 247.12 105.04 246.91  44.34
  110 -1.018  0.458 -0.548  24.63  80.28  24.93  81.78  49.30  82.74  41.75
  111 -0.344  1.111  0.160 113.72  11.19  92.38  12.33  80.47  13.22  45.38
  112 -0.177 -0.739 -0.459 105.56 204.32 110.18 203.54 119.15 203.71  46.27
  113 -0.986 -0.205  0.319  59.30 150.29  24.71 149.72  17.83 149.22  43.79
  114  0.802 -0.851 -0.797 179.24 212.83 208.94 213.84 220.50 216.23  39.33
  115 -0.407 -0.894 -0.293  90.75 221.33  86.63 219.94  92.42 219.24  62.28
  116 -0.014 -1.130 -0.249 128.26 244.87 126.84 244.28 125.78 244.71  56.97
  117 -0.804 -1.044  0.379  79.03 240.44  43.65 238.19  31.23 235.87  40.46
  118  0.680 -0.250 -0.729 171.26 153.24 196.82 153.43 206.79 154.04  43.04
  119  0.806  0.346  0.826 243.63  92.10 214.67  91.18 160.67  90.52  34.33
  120  0.048 -1.101 -0.324 130.97 241.40 133.15 240.98 134.15 241.63  49.64
  121  0.069  0.193  0.927 181.70 107.66 135.66 107.52  87.57 107.56  48.27
  122 -0.397 -0.363  0.390 117.47 166.95  86.45 166.44  66.67 166.02  95.74
  123 -0.774 -0.371  0.182  74.32 167.82  47.40 167.03  41.76 166.36  47.20
  124 -0.271 -0.635  0.153 120.12 195.07 100.01 194.54  87.32 194.15  47.13
  125 -0.660  1.058  0.024  79.20  16.29  59.78  18.39  57.94  19.99  39.77
  126 -0.850 -0.782  0.092  63.87 211.59  39.82 209.58  38.71 207.98  47.20
  127 -0.139 -1.069 -0.806  96.29 236.97 114.28 235.75 135.43 236.27  42.20
  128  0.217  0.747  0.692 185.72  49.33 151.42  48.62 110.52  48.43  35.12
  129 -0.217 -0.398  0.884 153.54 171.04 104.91 170.99  63.09 170.55  40.50
  130  0.622  1.007 -0.699 167.42  27.43 191.06  26.60 200.31  24.28  51.57
  131  0.287 -0.519 -0.032 163.41 181.76 157.94 182.02 144.90 182.54  44.79
  132  0.333  0.531  0.314 181.04  73.06 163.20  72.55 135.97  72.07  42.27
  133 -0.729 -0.173  0.547  92.48 146.92  51.07 146.60  31.11 146.28  40.54
  134  0.431 -0.584 -0.257 167.54 187.84 172.54 188.23 166.63 189.13  41.69
  135  0.645  0.350  0.028 197.36  92.43 195.19  91.92 175.82  91.24  36.62
  136  0.175 -0.818  0.162 160.93 213.29 146.47 213.58 127.22 214.05  47.65
  137  0.527  0.296 -0.396 170.60  98.29 182.12  98.04 180.62  97.50  45.00
  138 -0.310  0.077  0.435 126.95 120.04  95.73 120.26  72.36 120.15  42.86
  139 -0.744  1.146 -0.228  62.04   7.71  51.78  10.43  60.40  12.16  39.00
  140 -0.125  0.811 -0.351 114.34  44.73 115.49  45.27 119.71  45.14  60.04
  141 -1.075 -0.299 -0.914   6.41 159.28  20.61 158.21  58.49 157.71  33.27
  142 -0.161  0.584  0.293 135.57  66.87 111.37  66.91  91.72  67.16  62.11
  143 -0.057 -0.039 -0.955  98.10 132.16 122.57 132.11 148.27 132.14  42.33
  144  0.538 -1.030  0.187 194.32 234.43 184.44 235.83 159.78 237.40  49.27
  145 -0.435  0.674  0.401 114.54  56.52  82.40  57.37  62.96  57.93  88.08
  146 -1.039 -0.726  0.290  44.50 206.71  24.13 204.50   6.49 202.10  45.22
  147 -0.397 -1.091 -0.218  94.57 242.01  87.46 240.45  90.43 239.77  50.69
  148  0.223 -0.146  0.508 178.83 143.68 151.82 143.71 118.32 143.81  37.44
  149 -0.663  0.238  0.202  85.65 102.87  58.92 103.32  50.83 103.90  45.85
  150 -0.843 -0.303  0.649  85.52 161.13  38.54 160.49  16.90 159.76  42.11
  151  0.274  1.177 -0.671 137.97   9.20 155.97   9.23 167.39   7.82  46.54
  152 -0.398  0.033 -0.344  89.65 124.85  87.51 124.90  95.25 124.93  45.30
  153 -0.093  0.331 -0.884  97.50  95.00 118.96  94.96 142.51  94.76  38.48
  154  0.307  0.234  0.756 196.38 103.47 161.13 103.22 116.41 103.19  48.32
  155 -1.149 -0.982 -0.543  12.56 231.57  11.58 228.02  37.90 225.84  41.09
  156  0.290  0.284 -0.867 132.04  99.77 157.30  99.70 176.16  99.29  47.89
  157  0.949 -0.260  0.661 249.30 155.14 229.27 155.88 180.71 156.50  35.67
  158  0.509 -0.917  0.246 194.04 223.06 181.53 224.27 154.85 225.58  44.92
  159 -0.089 -0.938 -0.270 132.41 224.80 112.59 224.67 131.21 224.99  47.94
  160  0.176  0.951  0.614 178.96  27.95 146.91  27.15 109.84  27.02  46.93
  161 -1.083 -0.020 -0.532  19.08 130.32  18.28 130.28  43.18 130.29  40.00
  162  0.017  0.859 -0.660 115.49  40.96 129.99  41.32 143.85  40.69  71.71
  163 -0.288 -0.558  0.088 116.03 186.88  98.28 186.37  88.33 186.04  45.14
  164 -1.138 -0.661  0.120  43.92 199.17   6.26 197.08  18.39 195.37  39.57
  165 -0.742 -1.044 -0.066  68.22 238.56  51.52 236.21  54.27 234.50  42.70
  166  0.878  0.023 -0.333 203.67 126.09 218.03 126.04 211.15 125.57  43.85
  167  0.611  0.008 -0.034 191.99 127.42 191.55 127.48 175.04 127.51  41.60
  168  0.115 -0.471 -0.373 135.02 176.43 139.99 176.33 142.16 176.80  43.18
  169  0.204 -1.159 -0.631 133.61 245.99 148.70 245.63 159.87 246.78  37.59
  170 -0.738 -0.493  0.798 101.10 181.70  49.38 181.19  19.89 179.70  42.73
  171  0.327 -0.978 -0.752 139.73 226.74 161.21 226.77 175.31 228.42  47.65
  172 -0.232 -0.157  0.810 149.26 145.03 103.42 145.07  64.78 144.81  44.33
  173 -0.915 -0.466  0.500  73.05 178.63  31.50 177.51  16.76 176.37  35.86
  174 -0.089 -0.892  0.397 146.44 222.20 118.80 222.11  94.35 222.11  68.95
  175 -0.658  0.251 -0.020  65.89 101.64  66.71 102.14  48.60 102.71  37.45
  176  0.260  0.291 -0.863 129.58  99.12 154.36  99.10 173.28  98.53  51.50
  177 -0.796 -0.499 -0.542  45.61 180.09  47.39 178.91  68.05 178.32  43.00
  178 -0.463 -0.126  0.219 104.88 141.52  79.85 141.35  67.72 141.35  47.65
  179  0.277 -0.644 -0.457 146.36 193.70 156.52 193.79 160.03 194.74  45.71
  180 -0.758 -1.108  0.555  90.17 247.91  47.84 245.80  28.18 243.02  31.74
  181 -0.626 -0.831 -0.477  63.83 214.70  64.48 212.74  80.28 212.06  55.58
  182 -0.575  0.744 -0.898  53.82  51.86  70.51  53.56 101.08  54.28  39.24
  183  0.956 -0.960  0.603 243.95 227.78 232.11 229.99 179.40 232.34  36.59
  184 -0.454  0.190 -0.489  79.24 108.53  82.11 108.86  95.90 109.11  40.90
  185  0.028 -0.886  0.299 153.02 220.89 131.26 221.63 108.50 221.01  43.85
  186  0.056  0.951 -0.561 122.74  31.32 133.95  31.72 143.77  31.02  36.20
  187 -0.922  0.642 -0.935  19.49  62.14  36.25  63.93  71.77  64.80  20.87
  188  0.161  0.647 -0.489 135.12  62.61 144.46  62.05 150.95  61.87  46.80
  189 -0.937  0.471 -0.459  35.49  79.05  32.79  80.16  52.78  80.98  31.64
  190 -0.503 -0.800 -0.210  85.00 211.90  76.54 210.54  80.76 209.91  40.62
  191 -1.097  0.378 -0.538  17.20  88.19  17.08  89.80  41.90  91.12  40.34
  192  0.921  0.580  0.334 233.78  68.56 224.88  67.70 190.60  65.64  45.42
  193 -0.639 -0.393  0.423  95.61 169.93  61.16 170.15  43.41 168.96  46.78
  194  0.447 -0.783  1.000 219.02 211.11 176.40 212.68 119.89 213.50  43.94
  195 -1.218 -0.732 -0.233  17.03 206.24   3.01 203.41  20.05 201.45  27.14
  196 -0.770 -0.332 -0.270  57.86 163.01  49.29 162.46  59.80 161.69  37.25
  197 -0.158 -0.749 -0.108 120.30 205.96 112.01 205.85 107.32 205.31  42.83
  198  1.188 -0.083 -0.534 222.03 136.21 249.07 136.94 247.27 136.97  54.78
  199 -0.172 -0.349 -0.100 119.30 164.97 110.62 164.17 105.84 164.13  27.50
  200 -1.129 -1.061  0.393  54.31 243.37   6.18 240.18   7.57 236.35  39.80
  201 -1.044 -0.270  0.529  74.03 157.42  11.06 156.75  15.02 156.33  33.38
  202 -0.018  0.792 -0.678 111.86  47.78 126.45  47.90 141.59  47.84  46.50
  203  0.553 -0.426  0.706 216.35 172.84 187.21 173.62 141.30 174.36  37.14
  204  1.120 -0.543 -0.860 203.93 181.97 240.61 182.71 252.47 184.70  21.48
  205  1.125  0.125  0.002 244.56 115.37 240.89 116.02 229.55 114.51  39.35
  206 -0.502  0.882  0.465  20.84 253.15  75.25  35.07  54.36  36.39  29.00
  207 -0.379  1.009 -0.753  76.59  24.89  90.05  26.60 112.40  26.66  45.00
  208  0.149  0.641  0.101 156.24  61.62 103.91 253.80 127.28  61.12  50.41
  209 -0.646 -0.419 -0.411  64.32 171.98 103.91 253.80  76.08 170.58  45.61
  210  0.339 -0.651  0.757 199.22 196.73 164.44 197.59 119.24 198.72  42.82
  211  0.505  0.186  0.009 184.39 109.29 180.63 108.94 163.57 108.65  40.95
  212  0.883 -1.098  0.886  20.84 253.15 223.14 246.23 165.61 248.51  29.00
  213  0.197  0.241  0.513 176.70 102.97 149.14 102.80 113.55 253.77  46.97
  214  1.279 -0.517 -0.137 245.44 180.12 103.91 253.80 241.92 183.58  38.28
  215  1.181 -0.094 -0.240 233.07 137.64 103.91 253.80 236.31 138.31  35.62
  216  0.038 -0.917  0.033 143.17 223.37 132.44 224.75 119.23 222.73  62.09
  217 -0.018  0.757  0.890 172.24  47.26 103.91 253.80  80.97  47.34  44.12
  218 -1.014 -1.056  0.552  65.50 242.18  20.73 241.05 113.55 253.77  44.40
  219 -0.650 -0.625  0.255  20.84 253.15  60.14 193.68  49.69 192.62  29.00
  220  0.161 -0.092 -0.511  20.84 253.15 144.60 137.67 151.39 137.76  29.00
  221 -0.413  0.688  0.434 117.73  55.05  84.68  55.56 113.55 253.77  18.86
  222 -0.103  1.031  0.245 139.07  20.02 103.91 253.80  98.81  20.59  45.88
  223 -0.051  0.233 -0.126 129.43 104.09 122.99 104.33 113.55 253.77  60.62
  224 -0.976 -0.757  0.012  48.32 209.93  27.31 207.75  30.38 203.09  44.22
  225 -0.754 -1.184  0.496  20.84 253.15  48.45 253.44  30.79 250.85  29.00
  226 -0.747  0.249  0.803 101.62 101.58  47.67 101.26  20.02 102.02  61.36
  227 -0.971  1.089  0.147  54.29  12.87  27.09  14.14  25.81  16.79  42.83
  228  0.644  0.019 -0.526 175.94 125.36 193.58 126.78 196.32 126.83  46.80
  229  1.054  0.733  0.906  20.84 253.15 241.63  49.51 181.39  47.64  29.00
  230  0.287 -0.802  0.597 188.12 212.53 158.68 213.36 113.55 253.77  47.25
  231 -0.323  0.845  0.208 117.45  39.28  94.56  39.76  80.49  40.44  48.08
  232  0.830 -0.689 -0.712 184.81 196.88 103.91 253.80 220.05 199.76  42.47
